{
  "k2cloud":"",
  "cookies":"",
  "intcode_host":"",
  "chromedriver":"",
  "k2_hack_bot_environment":"",
  "k2_agent_version":"1.10.17",
  "WDM_LOG_LEVEL": "50",
  "SCRAPY_SETTINGS_MODULE": "k2hackbot.k2crawler.k2crawler.settings"
}
